\select@language {portuguese}
\contentsline {section}{\numberline {1}Introdu\IeC {\c c}\IeC {\~a}o}{3}{section.1}
\contentsline {section}{\numberline {2}Compilar/Makefile}{4}{section.2}
\contentsline {section}{\numberline {3}Funcionamento}{5}{section.3}
\contentsline {subsection}{\numberline {3.1}Leitura de input}{5}{subsection.3.1}
\contentsline {subsection}{\numberline {3.2}Funcionamento do simulador}{5}{subsection.3.2}
\contentsline {subsection}{\numberline {3.3}Output do simulador}{8}{subsection.3.3}
\contentsline {subsection}{\numberline {3.4}An\IeC {\'a}lise de resultados}{8}{subsection.3.4}
\contentsline {section}{\numberline {4}Conclus\IeC {\~a}o}{9}{section.4}
